module gitlab.com/final_exam2/api_gateway_service

go 1.20

require (
	github.com/dgrijalva/jwt-go v3.2.0+incompatible
	github.com/gin-gonic/gin v1.9.1
	github.com/go-swagger/go-swagger v0.30.5
	github.com/joho/godotenv v1.5.1
	github.com/spf13/cast v1.5.1
	github.com/streamingfast/logging v0.0.0-20230608130331-f22c91403091
	github.com/swaggo/swag v1.8.12
	go.uber.org/zap v1.25.0
	golang.org/x/crypto v0.12.0
	google.golang.org/grpc v1.57.0
	google.golang.org/protobuf v1.31.0
	gopkg.in/gomail.v2 v2.0.0-20160411212932-81ebce5c23df
)

require (
	github.com/KyleBanks/depth v1.2.1 // indirect
	github.com/asaskevich/govalidator v0.0.0-20230301143203-a9d515a09cc2 // indirect
	github.com/davecgh/go-spew v1.1.1 // indirect
	github.com/go-openapi/errors v0.20.4 // indirect
	github.com/go-openapi/jsonpointer v0.19.6 // indirect
	github.com/go-openapi/jsonreference v0.20.2 // indirect
	github.com/go-openapi/spec v0.20.9 // indirect
	github.com/go-openapi/strfmt v0.21.7 // indirect
	github.com/go-openapi/swag v0.22.4 // indirect
	github.com/josharian/intern v1.0.0 // indirect
	github.com/mailru/easyjson v0.7.7 // indirect
	github.com/mitchellh/mapstructure v1.5.0 // indirect
	github.com/oklog/ulid v1.3.1 // indirect
	github.com/pmezard/go-difflib v1.0.0 // indirect
	github.com/stretchr/objx v0.5.0 // indirect
	github.com/stretchr/testify v1.8.4 // indirect
	go.mongodb.org/mongo-driver v1.11.3 // indirect
	golang.org/x/tools v0.9.3 // indirect
)

require (
	github.com/blendle/zapdriver v1.3.1 // indirect
	github.com/bytedance/sonic v1.9.1 // indirect
	github.com/chenzhuoyu/base64x v0.0.0-20221115062448-fe3a3abad311 // indirect
	github.com/gabriel-vasile/mimetype v1.4.2 // indirect
	github.com/gin-contrib/sse v0.1.0 // indirect
	github.com/go-playground/locales v0.14.1 // indirect
	github.com/go-playground/universal-translator v0.18.1 // indirect
	github.com/go-playground/validator/v10 v10.14.0 // indirect
	github.com/goccy/go-json v0.10.2 // indirect
	github.com/golang/protobuf v1.5.3 // indirect
	github.com/json-iterator/go v1.1.12 // indirect
	github.com/klauspost/cpuid/v2 v2.2.4 // indirect
	github.com/leodido/go-urn v1.2.4 // indirect
	github.com/logrusorgru/aurora v2.0.3+incompatible // indirect
	github.com/mattn/go-isatty v0.0.19 // indirect
	github.com/mitchellh/go-testing-interface v1.14.1 // indirect
	github.com/modern-go/concurrent v0.0.0-20180306012644-bacd9c7ef1dd // indirect
	github.com/modern-go/reflect2 v1.0.2 // indirect
	github.com/pelletier/go-toml/v2 v2.0.8 // indirect
	github.com/swaggo/files v1.0.1
	github.com/swaggo/gin-swagger v1.6.0
	github.com/twitchyliquid64/golang-asm v0.15.1 // indirect
	github.com/ugorji/go/codec v1.2.11 // indirect
	go.uber.org/multierr v1.10.0 // indirect
	golang.org/x/arch v0.3.0 // indirect
	golang.org/x/net v0.10.0 // indirect
	golang.org/x/sys v0.11.0 // indirect
	golang.org/x/term v0.11.0 // indirect
	golang.org/x/text v0.12.0 // indirect
	google.golang.org/genproto/googleapis/rpc v0.0.0-20230525234030-28d5490b6b19 // indirect
	gopkg.in/alexcesaro/quotedprintable.v3 v3.0.0-20150716171945-2caba252f4dc // indirect
	gopkg.in/yaml.v3 v3.0.1 // indirect
)
